{
  "name": "fabric-network",
  "x-type": "hlfv1",
  "version": "1.0.0",
  "channels": {
    "winechannel": {
      "orderers": [
        "orderer1.wine.com",
        "orderer2.wine.com",
        "orderer3.wine.com"
      ],
      "peers": [
        "peer1.manufacturer.wine.com",
        "peer1.dealer.wine.com",
        "peer1.retailer.wine.com"
      ]
    }
  },
  "organizations": {
    "dealer.wine.com": {
      "mspid": "dealer-wine-com",
      "peers": [
        "peer1.dealer.wine.com"
      ],
      "orderers": [
      ],
      "certificateAuthorities": [
        "ca1.dealer.wine.com"
      ]
    },
    "manufacturer.wine.com": {
      "mspid": "manufacturer-wine-com",
      "peers": [
        "peer1.manufacturer.wine.com"
      ],
      "orderers": [
      ],
      "certificateAuthorities": [
        "ca1.manufacturer.wine.com"
      ]
    },
    "retailer.wine.com": {
      "mspid": "retailer-wine-com",
      "peers": [
        "peer1.retailer.wine.com"
      ],
      "orderers": [
      ],
      "certificateAuthorities": [
        "ca1.retailer.wine.com"
      ]
    },
    "wine.com": {
      "mspid": "wine-com",
      "peers": [
      ],
      "orderers": [
        "orderer1.wine.com",
        "orderer2.wine.com",
        "orderer3.wine.com"
      ]
    }
  },
  "orderers": {
    "orderer1.wine.com": {
      "url": "grpcs://192.168.68.166:7009",
      "grpcOptions": {
        "ssl-target-name-override": "orderer1.wine.com"
      },
      "tlsCACerts": {
        "pem": "-----BEGIN CERTIFICATE-----\nMIICjzCCAjagAwIBAgIUU5F7WdN/qK82HzqtRvpj+ARJ9XUwCgYIKoZIzj0EAwIw\nZDELMAkGA1UEBhMCVVMxFzAVBgNVBAgMDk5vcnRoIENhcm9saW5hMRAwDgYDVQQH\nDAdSYWxlaWdoMREwDwYDVQQKDAh3aW5lLmNvbTEXMBUGA1UEAwwOdGxzY2Eud2lu\nZS5jb20wHhcNMjIxMDI3MDkyNzA0WhcNMzIxMDI0MDkyNzA0WjBkMQswCQYDVQQG\nEwJVUzEXMBUGA1UECAwOTm9ydGggQ2Fyb2xpbmExEDAOBgNVBAcMB1JhbGVpZ2gx\nETAPBgNVBAoMCHdpbmUuY29tMRcwFQYDVQQDDA50bHNjYS53aW5lLmNvbTBZMBMG\nByqGSM49AgEGCCqGSM49AwEHA0IABK7CNpBCbnaqqCJtX/VLH+6ju0stSxTl0WYB\nfkiNtkI1ZUACPyEA4Px0N9C3v1fxd1HHq9uactlQmC6qESe9o5ejgcUwgcIwHQYD\nVR0OBBYEFF9lUZQAuNQdvsEyJF8KCGCGRLQ8MB8GA1UdIwQYMBaAFF9lUZQAuNQd\nvsEyJF8KCGCGRLQ8MA8GA1UdEwEB/wQFMAMBAf8wDgYDVR0PAQH/BAQDAgGmMB0G\nA1UdJQQWMBQGCCsGAQUFBwMBBggrBgEFBQcDAjBABgNVHREEOTA3hwTAqESmgg50\nbHNjYS53aW5lLmNvbYIOdGxzY2Etd2luZS1jb22CCWxvY2FsaG9zdIcEfwAAATAK\nBggqhkjOPQQDAgNHADBEAiA74Az+hW2cPYZktZvaXg8L/yRJe9tHvOuRiZ0ONeyv\nEQIgZ8yw0PGBtCTwQUXp5NoaeB/jC/IpFDYghupBl1s/zdk=\n-----END CERTIFICATE-----"
      }
    },
    "orderer2.wine.com": {
      "url": "grpcs://192.168.68.166:7010",
      "grpcOptions": {
        "ssl-target-name-override": "orderer2.wine.com"
      },
      "tlsCACerts": {
        "pem": "-----BEGIN CERTIFICATE-----\nMIICjzCCAjagAwIBAgIUU5F7WdN/qK82HzqtRvpj+ARJ9XUwCgYIKoZIzj0EAwIw\nZDELMAkGA1UEBhMCVVMxFzAVBgNVBAgMDk5vcnRoIENhcm9saW5hMRAwDgYDVQQH\nDAdSYWxlaWdoMREwDwYDVQQKDAh3aW5lLmNvbTEXMBUGA1UEAwwOdGxzY2Eud2lu\nZS5jb20wHhcNMjIxMDI3MDkyNzA0WhcNMzIxMDI0MDkyNzA0WjBkMQswCQYDVQQG\nEwJVUzEXMBUGA1UECAwOTm9ydGggQ2Fyb2xpbmExEDAOBgNVBAcMB1JhbGVpZ2gx\nETAPBgNVBAoMCHdpbmUuY29tMRcwFQYDVQQDDA50bHNjYS53aW5lLmNvbTBZMBMG\nByqGSM49AgEGCCqGSM49AwEHA0IABK7CNpBCbnaqqCJtX/VLH+6ju0stSxTl0WYB\nfkiNtkI1ZUACPyEA4Px0N9C3v1fxd1HHq9uactlQmC6qESe9o5ejgcUwgcIwHQYD\nVR0OBBYEFF9lUZQAuNQdvsEyJF8KCGCGRLQ8MB8GA1UdIwQYMBaAFF9lUZQAuNQd\nvsEyJF8KCGCGRLQ8MA8GA1UdEwEB/wQFMAMBAf8wDgYDVR0PAQH/BAQDAgGmMB0G\nA1UdJQQWMBQGCCsGAQUFBwMBBggrBgEFBQcDAjBABgNVHREEOTA3hwTAqESmgg50\nbHNjYS53aW5lLmNvbYIOdGxzY2Etd2luZS1jb22CCWxvY2FsaG9zdIcEfwAAATAK\nBggqhkjOPQQDAgNHADBEAiA74Az+hW2cPYZktZvaXg8L/yRJe9tHvOuRiZ0ONeyv\nEQIgZ8yw0PGBtCTwQUXp5NoaeB/jC/IpFDYghupBl1s/zdk=\n-----END CERTIFICATE-----"
      }
    },
    "orderer3.wine.com": {
      "url": "grpcs://192.168.68.166:7011",
      "grpcOptions": {
        "ssl-target-name-override": "orderer3.wine.com"
      },
      "tlsCACerts": {
        "pem": "-----BEGIN CERTIFICATE-----\nMIICjzCCAjagAwIBAgIUU5F7WdN/qK82HzqtRvpj+ARJ9XUwCgYIKoZIzj0EAwIw\nZDELMAkGA1UEBhMCVVMxFzAVBgNVBAgMDk5vcnRoIENhcm9saW5hMRAwDgYDVQQH\nDAdSYWxlaWdoMREwDwYDVQQKDAh3aW5lLmNvbTEXMBUGA1UEAwwOdGxzY2Eud2lu\nZS5jb20wHhcNMjIxMDI3MDkyNzA0WhcNMzIxMDI0MDkyNzA0WjBkMQswCQYDVQQG\nEwJVUzEXMBUGA1UECAwOTm9ydGggQ2Fyb2xpbmExEDAOBgNVBAcMB1JhbGVpZ2gx\nETAPBgNVBAoMCHdpbmUuY29tMRcwFQYDVQQDDA50bHNjYS53aW5lLmNvbTBZMBMG\nByqGSM49AgEGCCqGSM49AwEHA0IABK7CNpBCbnaqqCJtX/VLH+6ju0stSxTl0WYB\nfkiNtkI1ZUACPyEA4Px0N9C3v1fxd1HHq9uactlQmC6qESe9o5ejgcUwgcIwHQYD\nVR0OBBYEFF9lUZQAuNQdvsEyJF8KCGCGRLQ8MB8GA1UdIwQYMBaAFF9lUZQAuNQd\nvsEyJF8KCGCGRLQ8MA8GA1UdEwEB/wQFMAMBAf8wDgYDVR0PAQH/BAQDAgGmMB0G\nA1UdJQQWMBQGCCsGAQUFBwMBBggrBgEFBQcDAjBABgNVHREEOTA3hwTAqESmgg50\nbHNjYS53aW5lLmNvbYIOdGxzY2Etd2luZS1jb22CCWxvY2FsaG9zdIcEfwAAATAK\nBggqhkjOPQQDAgNHADBEAiA74Az+hW2cPYZktZvaXg8L/yRJe9tHvOuRiZ0ONeyv\nEQIgZ8yw0PGBtCTwQUXp5NoaeB/jC/IpFDYghupBl1s/zdk=\n-----END CERTIFICATE-----"
      }
    }
  },
  "peers": {
    "peer1.manufacturer.wine.com": {
      "url": "grpcs://192.168.68.166:7003",
      "grpcOptions": {
        "ssl-target-name-override": "peer1.manufacturer.wine.com"
      },
      "tlsCACerts": {
        "pem": "-----BEGIN CERTIFICATE-----\nMIIC4jCCAoigAwIBAgIUDcHqrk87tQ+l3eAHkORrpz/IWbYwCgYIKoZIzj0EAwIw\nfzELMAkGA1UEBhMCVVMxFzAVBgNVBAgMDk5vcnRoIENhcm9saW5hMRAwDgYDVQQH\nDAdSYWxlaWdoMR4wHAYDVQQKDBVtYW51ZmFjdHVyZXIud2luZS5jb20xJTAjBgNV\nBAMMHHRsc2NhMS5tYW51ZmFjdHVyZXIud2luZS5jb20wHhcNMjIxMDI3MDkyNjM5\nWhcNMzIxMDI0MDkyNjM5WjB/MQswCQYDVQQGEwJVUzEXMBUGA1UECAwOTm9ydGgg\nQ2Fyb2xpbmExEDAOBgNVBAcMB1JhbGVpZ2gxHjAcBgNVBAoMFW1hbnVmYWN0dXJl\nci53aW5lLmNvbTElMCMGA1UEAwwcdGxzY2ExLm1hbnVmYWN0dXJlci53aW5lLmNv\nbTBZMBMGByqGSM49AgEGCCqGSM49AwEHA0IABIm5X6x7suuDBaE01wco82tbEEwm\nVpPzYyqtBOoKv+XFMR/m4of6gKQ5FZS9mYCa6B/IZGOsWe9F2X43xaAgJNWjgeEw\ngd4wHQYDVR0OBBYEFHnpBr8LE6WgkNhss2WECEfM4obIMB8GA1UdIwQYMBaAFHnp\nBr8LE6WgkNhss2WECEfM4obIMA8GA1UdEwEB/wQFMAMBAf8wDgYDVR0PAQH/BAQD\nAgGmMB0GA1UdJQQWMBQGCCsGAQUFBwMBBggrBgEFBQcDAjBcBgNVHREEVTBThwTA\nqESmghx0bHNjYTEubWFudWZhY3R1cmVyLndpbmUuY29tghx0bHNjYTEtbWFudWZh\nY3R1cmVyLXdpbmUtY29tgglsb2NhbGhvc3SHBH8AAAEwCgYIKoZIzj0EAwIDSAAw\nRQIgJDZPXEwXmXaOi6FHfu1XU2CbiI/+vGm8k141GzD+UIICIQCMbPdK1S5TosKj\nW/4SxzLnipwvQ9kidGZDH1N1gA3IkA==\n-----END CERTIFICATE-----"
      }
    },
    "peer1.dealer.wine.com": {
      "url": "grpcs://192.168.68.166:7004",
      "grpcOptions": {
        "ssl-target-name-override": "peer1.dealer.wine.com"
      },
      "tlsCACerts": {
        "pem": "-----BEGIN CERTIFICATE-----\nMIICvjCCAmSgAwIBAgIUfBHmnlvDrx5hgTkGwvq8I7v+CEEwCgYIKoZIzj0EAwIw\nczELMAkGA1UEBhMCVVMxFzAVBgNVBAgMDk5vcnRoIENhcm9saW5hMRAwDgYDVQQH\nDAdSYWxlaWdoMRgwFgYDVQQKDA9kZWFsZXIud2luZS5jb20xHzAdBgNVBAMMFnRs\nc2NhMS5kZWFsZXIud2luZS5jb20wHhcNMjIxMDI3MDkyNjI2WhcNMzIxMDI0MDky\nNjI2WjBzMQswCQYDVQQGEwJVUzEXMBUGA1UECAwOTm9ydGggQ2Fyb2xpbmExEDAO\nBgNVBAcMB1JhbGVpZ2gxGDAWBgNVBAoMD2RlYWxlci53aW5lLmNvbTEfMB0GA1UE\nAwwWdGxzY2ExLmRlYWxlci53aW5lLmNvbTBZMBMGByqGSM49AgEGCCqGSM49AwEH\nA0IABBf53ZmJMRQuN6d/KOWAdEgL7wnBwfcPXxSQKK2gUnD9UG7eLqg1vaahalLd\nEoTzid4f/mZekzRg8h901IDXYxyjgdUwgdIwHQYDVR0OBBYEFAm4xi7RnX2nKW9B\ndDYjsQU9aOJBMB8GA1UdIwQYMBaAFAm4xi7RnX2nKW9BdDYjsQU9aOJBMA8GA1Ud\nEwEB/wQFMAMBAf8wDgYDVR0PAQH/BAQDAgGmMB0GA1UdJQQWMBQGCCsGAQUFBwMB\nBggrBgEFBQcDAjBQBgNVHREESTBHhwTAqESmghZ0bHNjYTEuZGVhbGVyLndpbmUu\nY29tghZ0bHNjYTEtZGVhbGVyLXdpbmUtY29tgglsb2NhbGhvc3SHBH8AAAEwCgYI\nKoZIzj0EAwIDSAAwRQIgeA/U/6NQpEdk2eFFeWQRAgNaflE5Lz+Zy0c4qdID0NcC\nIQCyvbVqXTy5ZDgNHCeUfKap6WIVWX6CYr9jBXNGCMNfpA==\n-----END CERTIFICATE-----"
      }
    },
    "peer1.retailer.wine.com": {
      "url": "grpcs://192.168.68.166:7005",
      "grpcOptions": {
        "ssl-target-name-override": "peer1.retailer.wine.com"
      },
      "tlsCACerts": {
        "pem": "-----BEGIN CERTIFICATE-----\nMIICyjCCAnCgAwIBAgIURKjhT6cwRK58Qza0FZBsjt9tSTEwCgYIKoZIzj0EAwIw\ndzELMAkGA1UEBhMCVVMxFzAVBgNVBAgMDk5vcnRoIENhcm9saW5hMRAwDgYDVQQH\nDAdSYWxlaWdoMRowGAYDVQQKDBFyZXRhaWxlci53aW5lLmNvbTEhMB8GA1UEAwwY\ndGxzY2ExLnJldGFpbGVyLndpbmUuY29tMB4XDTIyMTAyNzA5MjY1MloXDTMyMTAy\nNDA5MjY1MlowdzELMAkGA1UEBhMCVVMxFzAVBgNVBAgMDk5vcnRoIENhcm9saW5h\nMRAwDgYDVQQHDAdSYWxlaWdoMRowGAYDVQQKDBFyZXRhaWxlci53aW5lLmNvbTEh\nMB8GA1UEAwwYdGxzY2ExLnJldGFpbGVyLndpbmUuY29tMFkwEwYHKoZIzj0CAQYI\nKoZIzj0DAQcDQgAEgE2XI+FJVFeSzJrvjavAVsY3x/gGATx+Ubu955WHx+x/xpZO\nypz2SaPuvZb0PVx/oxfyzxydRbv3YrG9qVCpQ6OB2TCB1jAdBgNVHQ4EFgQUnWEw\nkodZrpSexywswXCMdWC8RCIwHwYDVR0jBBgwFoAUnWEwkodZrpSexywswXCMdWC8\nRCIwDwYDVR0TAQH/BAUwAwEB/zAOBgNVHQ8BAf8EBAMCAaYwHQYDVR0lBBYwFAYI\nKwYBBQUHAwEGCCsGAQUFBwMCMFQGA1UdEQRNMEuHBMCoRKaCGHRsc2NhMS5yZXRh\naWxlci53aW5lLmNvbYIYdGxzY2ExLXJldGFpbGVyLXdpbmUtY29tgglsb2NhbGhv\nc3SHBH8AAAEwCgYIKoZIzj0EAwIDSAAwRQIhALYc87zF+saZfZ5QVUqXET5LePbS\nv48aEpfYCisnD6VJAiAafr/wAWPT14N6jOEbVBE/RtrCZeUHIEU2Yr4D5EKPiw==\n-----END CERTIFICATE-----"
      }
    }
  },
  "certificateAuthorities": {
    "ca1.manufacturer.wine.com": {
      "url": "https://192.168.68.166:7000",
      "tlsCACerts": {
        "pem": "-----BEGIN CERTIFICATE-----\nMIIC1TCCAnygAwIBAgIUJMB9cVDFcxcQlk+xAtysJORSJ20wCgYIKoZIzj0EAwIw\nfDELMAkGA1UEBhMCVVMxFzAVBgNVBAgMDk5vcnRoIENhcm9saW5hMRAwDgYDVQQH\nDAdSYWxlaWdoMR4wHAYDVQQKDBVtYW51ZmFjdHVyZXIud2luZS5jb20xIjAgBgNV\nBAMMGWNhMS5tYW51ZmFjdHVyZXIud2luZS5jb20wHhcNMjIxMDI3MDkyNjM5WhcN\nMzIxMDI0MDkyNjM5WjB8MQswCQYDVQQGEwJVUzEXMBUGA1UECAwOTm9ydGggQ2Fy\nb2xpbmExEDAOBgNVBAcMB1JhbGVpZ2gxHjAcBgNVBAoMFW1hbnVmYWN0dXJlci53\naW5lLmNvbTEiMCAGA1UEAwwZY2ExLm1hbnVmYWN0dXJlci53aW5lLmNvbTBZMBMG\nByqGSM49AgEGCCqGSM49AwEHA0IABPxFDECNUS3a1mNzxHbFczftq+T7BmlyiJli\n8xLwzVJgfRKopsUffXVnlTzMNP1rRIGT3pav/AWJlWOxpszHd7GjgdswgdgwHQYD\nVR0OBBYEFLNj0GD4fd5twJYXmgQSRQrJluwxMB8GA1UdIwQYMBaAFLNj0GD4fd5t\nwJYXmgQSRQrJluwxMA8GA1UdEwEB/wQFMAMBAf8wDgYDVR0PAQH/BAQDAgGmMB0G\nA1UdJQQWMBQGCCsGAQUFBwMBBggrBgEFBQcDAjBWBgNVHREETzBNhwTAqESmghlj\nYTEubWFudWZhY3R1cmVyLndpbmUuY29tghljYTEtbWFudWZhY3R1cmVyLXdpbmUt\nY29tgglsb2NhbGhvc3SHBH8AAAEwCgYIKoZIzj0EAwIDRwAwRAIgWqu/WEYPuNcB\nbfhMEw2BILNgaEJw3veOTJDgHK0PUfICIDva5k3AGhydmvzwO2vpTNvC+EQynqvU\nrUuFICYWPoyK\n-----END CERTIFICATE-----"
      },
      "httpOptions": { "verify": "false" },
      "caName": "ca1",
      "registrar": { "enrollId": "admin", "enrollSecret": "adminpw" }
    },
    "ca1.dealer.wine.com": {
      "url": "https://192.168.68.166:7001",
      "tlsCACerts": {
        "pem": "-----BEGIN CERTIFICATE-----\nMIICszCCAligAwIBAgIUfRRb5zfe7vv+I/H8rhL16hMv338wCgYIKoZIzj0EAwIw\ncDELMAkGA1UEBhMCVVMxFzAVBgNVBAgMDk5vcnRoIENhcm9saW5hMRAwDgYDVQQH\nDAdSYWxlaWdoMRgwFgYDVQQKDA9kZWFsZXIud2luZS5jb20xHDAaBgNVBAMME2Nh\nMS5kZWFsZXIud2luZS5jb20wHhcNMjIxMDI3MDkyNjI2WhcNMzIxMDI0MDkyNjI2\nWjBwMQswCQYDVQQGEwJVUzEXMBUGA1UECAwOTm9ydGggQ2Fyb2xpbmExEDAOBgNV\nBAcMB1JhbGVpZ2gxGDAWBgNVBAoMD2RlYWxlci53aW5lLmNvbTEcMBoGA1UEAwwT\nY2ExLmRlYWxlci53aW5lLmNvbTBZMBMGByqGSM49AgEGCCqGSM49AwEHA0IABDon\naX3zbusBiQ17JzlqX9r5MFqHNveYqPBQkda0LZabAAkVaqGLPECMW0GlEpjdq+IF\n9xRiDeNa4DxyAThzHbyjgc8wgcwwHQYDVR0OBBYEFBiFnkvMIqxLJXhbqwNhlCt1\n8u4PMB8GA1UdIwQYMBaAFBiFnkvMIqxLJXhbqwNhlCt18u4PMA8GA1UdEwEB/wQF\nMAMBAf8wDgYDVR0PAQH/BAQDAgGmMB0GA1UdJQQWMBQGCCsGAQUFBwMBBggrBgEF\nBQcDAjBKBgNVHREEQzBBhwTAqESmghNjYTEuZGVhbGVyLndpbmUuY29tghNjYTEt\nZGVhbGVyLXdpbmUtY29tgglsb2NhbGhvc3SHBH8AAAEwCgYIKoZIzj0EAwIDSQAw\nRgIhAJrD428xPqqbuqSDBQtuJaUqo0qyDbMvkVIEwYrt6hLiAiEA4D2olSdg7Abs\nlLYBSXNvKuF5fj2M32AdIn5YHzgWMP0=\n-----END CERTIFICATE-----"
      },
      "httpOptions": { "verify": "false" },
      "caName": "ca1",
      "registrar": { "enrollId": "admin", "enrollSecret": "adminpw" }
    },
    "ca1.retailer.wine.com": {
      "url": "https://192.168.68.166:7002",
      "tlsCACerts": {
        "pem": "-----BEGIN CERTIFICATE-----\nMIICvzCCAmSgAwIBAgIUbrCddRSFdkaTacJo8C7fW9T9dCgwCgYIKoZIzj0EAwIw\ndDELMAkGA1UEBhMCVVMxFzAVBgNVBAgMDk5vcnRoIENhcm9saW5hMRAwDgYDVQQH\nDAdSYWxlaWdoMRowGAYDVQQKDBFyZXRhaWxlci53aW5lLmNvbTEeMBwGA1UEAwwV\nY2ExLnJldGFpbGVyLndpbmUuY29tMB4XDTIyMTAyNzA5MjY1MloXDTMyMTAyNDA5\nMjY1MlowdDELMAkGA1UEBhMCVVMxFzAVBgNVBAgMDk5vcnRoIENhcm9saW5hMRAw\nDgYDVQQHDAdSYWxlaWdoMRowGAYDVQQKDBFyZXRhaWxlci53aW5lLmNvbTEeMBwG\nA1UEAwwVY2ExLnJldGFpbGVyLndpbmUuY29tMFkwEwYHKoZIzj0CAQYIKoZIzj0D\nAQcDQgAEkQwlyboarMBQlesHX+YR5EqHP+Hv0KG4tq+bV++UNq6/bHPIWR0wojco\nQxu+1+rW9Rp1qNBzkdqAfwsvCPe56qOB0zCB0DAdBgNVHQ4EFgQUcyUzpJCpVJEq\nIh6EIr6dpMIv7B8wHwYDVR0jBBgwFoAUcyUzpJCpVJEqIh6EIr6dpMIv7B8wDwYD\nVR0TAQH/BAUwAwEB/zAOBgNVHQ8BAf8EBAMCAaYwHQYDVR0lBBYwFAYIKwYBBQUH\nAwEGCCsGAQUFBwMCME4GA1UdEQRHMEWHBMCoRKaCFWNhMS5yZXRhaWxlci53aW5l\nLmNvbYIVY2ExLXJldGFpbGVyLXdpbmUtY29tgglsb2NhbGhvc3SHBH8AAAEwCgYI\nKoZIzj0EAwIDSQAwRgIhAOqgRt9TVEMXQhni5BETu22HELD2cMhd5/0OnFC/+WF3\nAiEAuIpCCyn4qYUBffXhPpVOKVbg12p6Pjmzg947DWO0DFw=\n-----END CERTIFICATE-----"
      },
      "httpOptions": { "verify": "false" },
      "caName": "ca1",
      "registrar": { "enrollId": "admin", "enrollSecret": "adminpw" }
    }
  },
  "entityMatchers": {
    "orderer": [
      { "mappedHost": "orderer1.wine.com",
        "pattern": "(\\w*)orderer1.wine.com(\\w*)",
        "sslTargetOverrideUrlSubstitutionExp": "orderer1.wine.com",
        "urlSubstitutionExp": "192.168.68.166:7009"
      },
      { "mappedHost": "orderer2.wine.com",
        "pattern": "(\\w*)orderer2.wine.com(\\w*)",
        "sslTargetOverrideUrlSubstitutionExp": "orderer2.wine.com",
        "urlSubstitutionExp": "192.168.68.166:7010"
      },
      { "mappedHost": "orderer3.wine.com",
        "pattern": "(\\w*)orderer3.wine.com(\\w*)",
        "sslTargetOverrideUrlSubstitutionExp": "orderer3.wine.com",
        "urlSubstitutionExp": "192.168.68.166:7011"
      }
    ],
    "peer": [
      { "mappedHost": "peer1.manufacturer.wine.com",
        "pattern": "(\\w*)peer1.manufacturer.wine.com(\\w*)",
        "sslTargetOverrideUrlSubstitutionExp": "peer1.manufacturer.wine.com",
        "urlSubstitutionExp": "192.168.68.166:7003"
      },
      { "mappedHost": "peer1.dealer.wine.com",
        "pattern": "(\\w*)peer1.dealer.wine.com(\\w*)",
        "sslTargetOverrideUrlSubstitutionExp": "peer1.dealer.wine.com",
        "urlSubstitutionExp": "192.168.68.166:7004"
      },
      { "mappedHost": "peer1.retailer.wine.com",
        "pattern": "(\\w*)peer1.retailer.wine.com(\\w*)",
        "sslTargetOverrideUrlSubstitutionExp": "peer1.retailer.wine.com",
        "urlSubstitutionExp": "192.168.68.166:7005"
      }
    ],
  "certificateAuthorities": [
      { "mappedHost": "ca1.manufacturer.wine.com",
        "pattern": "(\\w*)ca1.manufacturer.wine.com(\\w*)",
        "sslTargetOverrideUrlSubstitutionExp": "ca1.manufacturer.wine.com",
        "urlSubstitutionExp": "192.168.68.166:7000"
      },
      { "mappedHost": "ca1.dealer.wine.com",
        "pattern": "(\\w*)ca1.dealer.wine.com(\\w*)",
        "sslTargetOverrideUrlSubstitutionExp": "ca1.dealer.wine.com",
        "urlSubstitutionExp": "192.168.68.166:7001"
      },
      { "mappedHost": "ca1.retailer.wine.com",
        "pattern": "(\\w*)ca1.retailer.wine.com(\\w*)",
        "sslTargetOverrideUrlSubstitutionExp": "ca1.retailer.wine.com",
        "urlSubstitutionExp": "192.168.68.166:7002"
      }
    ]
  }
}
